<svg xmlns="http://www.w3.org/2000/svg" width="64" height="64" viewBox="0 0 64 64">
  <path fill="#eaeaea" d="M4 6h56v58H4z" />
  <path fill="#434854" d="M26 48h12v16H26z" />
  <g fill="#469fcc">
    <path d="M26 36h12v8H26zM10 36h12v8H10zM10 48h12v8H10zM42 36h12v8H42zM42 48h12v8H42zM26 24h12v8H26zM10 24h12v8H10zM42 24h12v8H42zM26 12h12v8H26zM10 12h12v8H10zM42 12h12v8H42z" />
  </g>
  <g fill="#000" opacity=".15">
    <path d="M10 12h12v2H10zM26 12h12v2H26zM42 12h12v2H42zM10 24h12v2H10zM26 24h12v2H26zM42 24h12v2H42zM10 36h12v2H10zM26 36h12v2H26zM42 36h12v2H42zM10 48h12v2H10zM42 48h12v2H42z" />
  </g>
  <path fill="#000" d="M4 6h56v2H4z" opacity=".1" />
  <path fill="#ef4d4d" d="M64 4c0 1.105-.895 2-2 2H2C.895 6 0 5.105 0 4V2C0 .895.895 0 2 0h60c1.105 0 2 .895 2 2v2z" />
  <path fill="#3aad73" d="M14.89 64c.688-1.182 1.11-2.535 1.11-4a8 8 0 0 0-16 0c0 1.465.422 2.818 1.11 4h13.78zM56 52c-3.234 0-6.004 1.928-7.264 4.69-.824-.426-1.744-.69-2.736-.69a6 6 0 0 0-6 6c0 .705.145 1.371.367 2h22.524C63.578 62.818 64 61.465 64 60a8 8 0 0 0-8-8z" />
  <path fill="#000" d="M48.736 56.69C47.912 56.263 46.992 56 46 56a6 6 0 0 0-6 6c0 .705.145 1.371.367 2h8.742C48.422 62.818 48 61.465 48 60c0-1.184.273-2.299.736-3.31z" opacity=".2" />
</svg>
